…
## More Complex Example

To give a more complex example on a larger grid with 7
groups:

``` r
sh2 <- run_schelling(size = 30, number_of_groups = 4, max_rounds = 1000, seed = 1234567)

dev <- plot_development(sh2, animate = TRUE)

grid <- plot_grid(sh2, title = TRUE, grid = FALSE, animate = TRUE)

combined <- combine_gifs(grid, dev)
print(combined)
#> # A tibble: 100 x 7
#>    format width height colorspace matte filesize density
#>    <chr>  <int>  <int> <chr>      <lgl>    <int> <chr>  
#>  1 GIF     1344    480 sRGB       TRUE         0 72x72  
#>  2 GIF     1344    480 sRGB       TRUE         0 72x72  
#>  3 GIF     1344    480 sRGB       TRUE         0 72x72  
#>  4 GIF     1344    480 sRGB       TRUE         0 72x72  
#>  5 GIF     1344    480 sRGB       TRUE         0 72x72  
#>  6 GIF     1344    480 sRGB       TRUE         0 72x72  
#>  7 GIF     1344    480 sRGB       TRUE         0 72x72  
#>  8 GIF     1344    480 sRGB       TRUE         0 72x72  
#>  9 GIF     1344    480 sRGB       TRUE         0 72x72  
#> 10 GIF     1344    480 sRGB       TRUE         0 72x72  
#> # … with 90 more rows
```
…
